<svg xmlns="http://www.w3.org/2000/svg" width="144" height="144" viewBox="0 0 72 72" fill="#bbbbbb">
  <circle cx="6" cy="28" r="2"/>
  <circle cx="6" cy="36" r="2"/>
  <circle cx="6" cy="44" r="2"/>
</svg>
